{
    "/sbert/preComputedCompareSkills/": {
        "post": {
            "operationId": 1,
            "summary": "",
            "description": "Add new should get pre computed compare skills",
            "parameters": [
                {
                    "description": "Auth token",
                    "in": "header",
                    "name": "Authentication",
                    "example": "Bearer ****************",
                    "required": true,
                    "schema": {
                        "type": "string"
                    }
                },
                {
                    "description": "Language letter code (depending on setup: en, es, de, ar, eng, spa, es_AR, en_US)",
                    "in": "header",
                    "name": "Accept-Language",
                    "example": "en",
                    "required": false,
                    "schema": {
                        "type": "string"
                    }
                }
            ],
            "tags": [
                "AiPreComputedCompareSkills"
            ],
            "responses": {
                "200": {
                    "description": "OK",
                    "content": {
                        "application/json": {
                            "schema": {
                                "type": "object",
                                "description": "Add new should get pre computed compare skills",
                                "properties": {
                                    "data": {
                                        "type": "array",
                                        "items": {
                                            "type": "object"
                                        }
                                    }
                                }
                            }
                        }
                    }
                },
                "400": {
                    "description": "Bad Request",
                    "content": {
                        "application/json": {
                            "schema": {
                                "type": "object",
                                "description": "Post should throw bad request exception when empty body provided",
                                "properties": {
                                    "error": {
                                        "type": "string",
                                        "example": "Bad Request"
                                    },
                                    "code": {
                                        "type": "number",
                                        "example": 400
                                    }
                                }
                            }
                        }
                    }
                }
            },
            "security": [
                {
                    "bearerAuth": []
                }
            ],
            "requestBody": {
                "description": "",
                "content": {
                    "application/json": {
                        "schema": {
                            "type": "object",
                            "description": "Add new should get pre computed compare skills",
                            "properties": {
                                "language": {
                                    "type": "string",
                                    "example": "en"
                                },
                                "skills": {
                                    "type": "string",
                                    "example": "Manage musical staff"
                                },
                                "skills_eval": {
                                    "type": "array",
                                    "items": {
                                        "type": "string",
                                        "example": "Manage musical staff"
                                    }
                                }
                            }
                        }
                    }
                }
            }
        }
    }
}